<?xml version="1.0" encoding="UTF-8" standalone="no"?>
<svg
   xmlns:dc="http://purl.org/dc/elements/1.1/"
   xmlns:cc="http://creativecommons.org/ns#"
   xmlns:rdf="http://www.w3.org/1999/02/22-rdf-syntax-ns#"
   xmlns:svg="http://www.w3.org/2000/svg"
   xmlns="http://www.w3.org/2000/svg"
   xmlns:sodipodi="http://sodipodi.sourceforge.net/DTD/sodipodi-0.dtd"
   xmlns:inkscape="http://www.inkscape.org/namespaces/inkscape"
   viewBox="0 0 51 36"
   x="0px"
   y="0px"
   version="1.1"
   id="svg20"
   sodipodi:docname="boiler.svg"
   width="51"
   height="36"
   inkscape:version="1.0.2 (e86c870879, 2021-01-15)">
  <metadata
     id="metadata26">
    <rdf:RDF>
      <cc:Work
         rdf:about="">
        <dc:format>image/svg+xml</dc:format>
        <dc:type
           rdf:resource="http://purl.org/dc/dcmitype/StillImage" />
        <dc:title>20 House</dc:title>
      </cc:Work>
    </rdf:RDF>
  </metadata>
  <defs
     id="defs24" />
  <sodipodi:namedview
     pagecolor="#ffffff"
     bordercolor="#666666"
     borderopacity="1"
     objecttolerance="10"
     gridtolerance="10"
     guidetolerance="10"
     inkscape:pageopacity="0"
     inkscape:pageshadow="2"
     inkscape:window-width="1902"
     inkscape:window-height="1396"
     id="namedview22"
     showgrid="true"
     inkscape:zoom="16.68772"
     inkscape:cx="24.803702"
     inkscape:cy="11.903132"
     inkscape:window-x="1928"
     inkscape:window-y="36"
     inkscape:window-maximized="0"
     inkscape:current-layer="svg20"
     inkscape:document-rotation="0"
     fit-margin-top="0"
     fit-margin-left="0"
     fit-margin-right="0"
     fit-margin-bottom="0"
     showguides="false">
    <inkscape:grid
       type="xygrid"
       id="grid836"
       originx="0.50000189"
       originy="-79.5" />
  </sodipodi:namedview>
  <title
     id="title2">20 House</title>
  <rect
     style="fill:none;fill-opacity:1;stroke:#000000;stroke-width:1;stroke-linecap:round;stroke-linejoin:bevel;stroke-miterlimit:4;stroke-dasharray:none;stroke-opacity:1;paint-order:stroke fill markers"
     id="rect1366"
     width="20"
     height="30"
     x="15.500002"
     y="0.5" />
  <rect
     style="fill:none;fill-opacity:1;stroke:#000000;stroke-width:1;stroke-linecap:round;stroke-linejoin:bevel;stroke-miterlimit:4;stroke-dasharray:none;stroke-opacity:1;paint-order:stroke fill markers"
     id="rect1368"
     width="2"
     height="2"
     x="17.500002"
     y="30.5" />
  <rect
     style="fill:none;fill-opacity:1;stroke:#000000;stroke-width:1;stroke-linecap:round;stroke-linejoin:bevel;stroke-miterlimit:4;stroke-dasharray:none;stroke-opacity:1;paint-order:stroke fill markers"
     id="rect1370"
     width="2"
     height="2"
     x="31.500002"
     y="30.5" />
  <path
     style="fill:none;stroke:#000000;stroke-width:1px;stroke-linecap:round;stroke-linejoin:bevel;stroke-opacity:1"
     d="m 18.500002,32.5 v 3 h -5 v 0"
     id="path1372" />
  <path
     style="fill:none;stroke:#000000;stroke-width:1px;stroke-linecap:round;stroke-linejoin:bevel;stroke-opacity:1"
     d="m 32.500002,32.5 v 3 h 5"
     id="path1374" />
  <path
     style="fill:none;stroke:#000000;stroke-width:1px;stroke-linecap:round;stroke-linejoin:bevel;stroke-opacity:1"
     d="m 23.500002,5.5 h 4"
     id="path1376" />
  <path
     style="fill:none;stroke:#000000;stroke-width:1px;stroke-linecap:round;stroke-linejoin:bevel;stroke-opacity:1"
     d="m 25.490798,21.308351 v 1 0"
     id="path1378" />
  <circle
     style="fill:none;fill-opacity:1;stroke:#000000;stroke-width:1;stroke-linecap:round;stroke-linejoin:bevel;stroke-miterlimit:4;stroke-dasharray:none;stroke-opacity:1;paint-order:stroke fill markers"
     id="path1380"
     sodipodi:type="arc"
     sodipodi:cx="25.490799"
     sodipodi:cy="23.308352"
     sodipodi:rx="2"
     sodipodi:ry="2"
     sodipodi:start="3.1234444"
     sodipodi:end="2.9754085"
     sodipodi:arc-type="arc"
     d="m 23.491128,23.344646 a 2,2 0 0 1 1.889412,-2.033253 2,2 0 0 1 2.10177,1.812887 2,2 0 0 1 -1.733879,2.167408 2,2 0 0 1 -2.230078,-1.652496"
     sodipodi:open="true" />
</svg>
